id,category_id
MO58WEYhMVc,22
fEtZjyX4Vnw,22
vPvYCYpCh_g,17
7F4tym22AbY,17
bqxxtxXWMsM,17
_2f-N-KUH1M,17
MVftbpC6waQ,17
0S6c1QBm9sc,17
N0-_bkXM8Gc,17
K7ehD_bFS6s,17
c8VGXY4-EC8,26
7mt2MyfQoO8,17
g51rk5A3JwM,22
oIBfBnF0z1I,17
0eYFvVAeMtk,17
OzsYGTodOWE,24
k034dwgxNrc,17
yIfodFEMBuA,17
x1xwhJ6Jizo,24
ImZeao5s118,26
RzYJ-W-QbYA,17
56sCkZlmkVc,17
MTt4zIpRwRs,24
59gs7vPRZLM,17
3Y3NoQ6TQcg,17
NvhoOulbOK0,17
qGcuT29lxmQ,26
U1ol_RgmoC0,24
VTKbdTUIdJU,22
hnSnzqjSGos,17
k0C_B-ngLTs,26
VF3rIHZ-GHc,17
v7V7vWkpjeA,22
BRcq4nUX-d0,17
lGY62t6hmvg,17
RRF3oiQI1ZM,22
_ANu4EnfNqs,17
30UYktFWTSU,17
31JJGz_7byI,17
veXf556O_jM,24
zG7JxVx4ELY,26
2GVzEE2NzAk,17
6xVi6RamvRo,26
dnhlYuMXPhc,17
M3vVacQBeaM,19
7kbLqkBVsxo,26
