id,category_id
2VryL_TTsGc,17
GqNFkSpNdHI,17
so5ZVQWViGI,22
UaKcv6A88Dk,26
N6lko4_NAuQ,10
qlg1lHz8P3o,17
60x9ggejFlM,17
7OroabcS7qY,17
qe2WlghZSYU,17
WTUxQy5rpkc,22
q_ztlUAOPsA,27
fDG8wQ6JacA,17
K8gOxqQnop4,17
CBMpsRVgshM,17
0Sc1VHCO61k,26
0CZ6NAj2GcQ,22
V_K5EJyXyjQ,17
11rP7glZiA0,17
FJ4exDo_3ew,26
5VJKc0mS-pE,17
1grJrjarkNc,17
35Bszd3seOk,17
q2vgDoyfPw4,22
qIawRphlzF0,22
E0Xz5tZfOiI,22
1-mhUUG_T8w,17
RFsnxMJrmGQ,26
rhOIMPF8RtA,26
4vuRlxbuD5k,17
O71g62FbKjA,17
R8A_4QVxVxc,26
fD3FkCz3qSc,17
PsSeSMHFCBw,17
5BhC-5wNko8,17
2V7gu7Q11Wo,17
_hdMfz8u-q8,10
28W2uqp_5Jw,17
02RX7QxQDhQ,20
AQeHU03TSyY,17
1fdlGKmJmCE,17
fD-BtlgIFBw,22
eFTxjZhsTeo,17
Mq9LwzcKXbM,26
j6rg005Fgk0,17
2mNrKJIMYV4,19
j7vOIcRn0wY,17
