id,category_id
uuf0DTanVV4,17
h1XKoPl0jrM,17
ZV0TvvKc5AQ,26
h-HlQFZq9VE,24
O7qXBV3_iSc,26
cMllQxby5-U,17
1-FpvtYRyow,22
Kwh8OVZrhiA,17
oNDd20qQI9c,28
kJ91Dc3QYx8,22
7cpgLjzcRGo,17
j5XRxTOGKjc,17
jrjrRMyT5bo,17
yfh8k4Jbas4,22
3PvrLvDtmcs,17
Ips_Pnsr97s,24
0u5lQMFOxBk,17
oYKyPtMTTDo,17
GYB74PkBrTk,17
49nsdkQsnxg,17
78vjRMDDe9g,17
4vCa2rfXhQ0,22
wRBGuNOwYWk,17
4YQeraWGhzA,17
33OcvfK5mM8,17
i4eJ1SjqGkw,17
3ookHhWjaIs,17
WPmV4kr9Qiw,17
90GdAplAAMg,26
452v6YoLPd4,22
i0FU9DcZ6CU,26
vlMxAppa2Lw,17
gDMEOVyfpaw,17
CF9e25dXNvA,22
0S8h8_9mafw,27
4Tu5KKNrQG0,28
ndxAn9I7DrM,17
q7QSlHwyYpk,17
KamfKCdUE2U,17
_cAtn_lt5d8,17
Z8kk3-9Yk38,17
5GUW1_7T8B8,26
CTWYjiLx4vs,17
DBxess1YbiI,17
_DYDmO9se9s,24
tUiY1OCqPmE,17
YuVY2kkqzew,20
ukUGUjfCe_Y,22
3PRYl8bGqz8,26
