id,category_id
rkeBRvaklr8,17
L2mdCef1bg8,17
Hha0fOWhD_Q,26
jd1sL_h5Ghc,17
_-UmbQTWVE4,24
4gnLjGyD_Tc,17
v6mNWZciKWs,26
scRdXpHatRU,17
c8k99N4Pvow,22
I7BIrLH9Vbo,17
wKVrc4wyFkE,26
lZnhDL3D9DA,26
IBqBohhgH8I,22
KmFEo3GdDLw,17
R2nVzrBbjgU,17
_hjy52KIZY8,17
gMoyCz05IjM,26
nFhmAuTkvto,17
hlmiDPUTDkA,17
Du1YG4aEUrs,17
a6_GnJm1Jow,17
bI_gEmE9TsA,22
i_FePKkSlyU,17
atnnXfRD1gQ,17
KCSNQAXAkmw,17
t6arVtK-ICc,17
qGeHDQBadcE,17
6wD7WLEL2mA,17
HjCjaVgWKnw,17
d2ktAHTi2JQ,19
QfSTUf-K7Xo,17
7zZZ-xQr_Wc,17
X-lT8MzV6DI,26
7LAVyUU6bGs,17
HDEi7zQMpp4,23
9JB1bKvfXPg,22
4gNRrk0diAs,27
143BSpTXXn8,17
8MtkIfFIOlA,17
TLQXW33Krew,17
2nbC-DzT3A4,22
Wd_HWHDqrCI,17
HkAU0OcZT4w,17
OWROQfjLtjI,17
yIOdGZDxSoM,26
TLZPsgj1lbM,17
P-1iCZBB3R4,17
