id,category_id
WmlfPl6aSPE,17
43N1g6ZiWd4,1
qoqpYMbBsZE,26
2SLXH9UFLc0,17
69RYP5TRfKA,22
54Cs0IgE5qs,26
6EXJVPllGZA,17
48OHoC7nKNE,17
xYfpc0YRwk8,22
zDu-w70CGA0,24
2GmrIsH_KaU,26
O6-fHoJer7c,17
usdo-ZlcU0Y,17
d0aBFSRNDBI,17
CG4lmlaTc1A,22
Te9sOzJ9Ito,17
P4QQPdVpliI,17
rypYpf43cWA,22
ssdFZ8a6EAE,26
hUYyKP--SZc,17
g57IHHTn08U,17
MbH6OGAxM3U,17
I7l5bjJDxUE,17
VIPBnTRYb_0,17
qXeh_oApZJc,17
dfcN7nAOkE4,17
467FuliO_ks,24
2BIr17pU1O8,17
C4cXmvqkOP8,17
lbQM6H1MQI0,20
c8Xn54j2x4A,10
MOB0r78rstY,17
Y_bkECNQuoQ,24
smQjnM9_4Fg,26
0zCQwYXbm8k,22
OUIYpxvQsso,10
wst3sd-GXwM,26
fEyzfvqgp50,17
ts6VhBbYah0,17
2FufxukpTHg,1
7Xk0Fmwiu_k,17
ElMZKllCE-c,22
ZhtT2USch7g,25
iwBK1ge5-u4,17
2Wftswir7cE,17
20K7rEHIcjI,24
