id,category_id
4YJ-QQKkYCA,28
JSUseamz6GQ,26
rtxKcB8dfHo,17
KmlDoSKnz6A,10
5BiLbKli8Wg,17
_v2MKmmwwy4,17
3IIWo3P1pNM,17
M6bdCqJs9ag,17
_uXpyBqWDz0,26
ewCOujosgjY,17
DPDDzyFyarw,17
2jsbM7NYG8s,17
1H7PJu0SbWY,17
5CNET85-fe0,17
10zIB3IU-f8,26
M3lX1LzxEeM,17
N458WiGwl40,17
8zkGhwlxf_c,22
l3ZhtGt2AGc,1
328LXKeOBR0,26
ijx0etqZLu8,17
5SGrCvvOkp8,24
8AFgE5KnR64,17
lMIeAcSc_5M,17
_FaXyhrf76o,22
X_2Pf_2qDk4,17
zGmdze8wZgU,17
LYRfIYv5oFk,17
IphgoRTbqYk,17
wOf8OqPsdf0,10
8eVLhCWxOcs,17
ewTmpZoAREk,22
11ExAi6M2ho,26
sciZeQFVY_U,22
KZvNs2zWums,22
Z2TCS_Mmjao,22
KgcnDK3TZ-A,17
XORMCVqxdiQ,17
vAx4nS8GHtw,17
s2PS02IZQ-w,22
56H7_r3IgSw,26
aix6wqR3Y40,17
GVvd8dz8lbM,27
5GowOIo0xKA,22
qt2eZ4rLt7Y,27
u765fnU6svs,17
eKumQqtRkqo,17
7mJ0J_ig7aA,17
